%YAML 1.1
%TAG !u! tag:unity3d.com,2011:
--- !u!1001 &8623965607102991322
PrefabInstance:
  m_ObjectHideFlags: 0
  serializedVersion: 2
  m_Modification:
    m_TransformParent: {fileID: 0}
    m_Modifications:
    - target: {fileID: 1299809431344331581, guid: de2800ef3b33bf959adee30a09f935d0,
        type: 3}
      propertyPath: m_Name
      value: Tree
      objectReference: {fileID: 0}
    - target: {fileID: 3611039422504995394, guid: de2800ef3b33bf959adee30a09f935d0,
        type: 3}
      propertyPath: m_Sprite
      value: 
      objectReference: {fileID: 21300000, guid: 2de0936b350f58370abe0535a53c246e,
        type: 3}
    - target: {fileID: 7452412804066028198, guid: de2800ef3b33bf959adee30a09f935d0,
        type: 3}
      propertyPath: m_LocalPosition.x
      value: -9.37
      objectReference: {fileID: 0}
    - target: {fileID: 7452412804066028198, guid: de2800ef3b33bf959adee30a09f935d0,
        type: 3}
      propertyPath: m_LocalPosition.y
      value: 9.775831
      objectReference: {fileID: 0}
    - target: {fileID: 7452412804066028198, guid: de2800ef3b33bf959adee30a09f935d0,
        type: 3}
      propertyPath: m_LocalPosition.z
      value: 0
      objectReference: {fileID: 0}
    - target: {fileID: 7452412804066028198, guid: de2800ef3b33bf959adee30a09f935d0,
        type: 3}
      propertyPath: m_LocalRotation.x
      value: 0
      objectReference: {fileID: 0}
    - target: {fileID: 7452412804066028198, guid: de2800ef3b33bf959adee30a09f935d0,
        type: 3}
      propertyPath: m_LocalRotation.y
      value: 0
      objectReference: {fileID: 0}
    - target: {fileID: 7452412804066028198, guid: de2800ef3b33bf959adee30a09f935d0,
        type: 3}
      propertyPath: m_LocalRotation.z
      value: 0
      objectReference: {fileID: 0}
    - target: {fileID: 7452412804066028198, guid: de2800ef3b33bf959adee30a09f935d0,
        type: 3}
      propertyPath: m_LocalRotation.w
      value: 1
      objectReference: {fileID: 0}
    - target: {fileID: 7452412804066028198, guid: de2800ef3b33bf959adee30a09f935d0,
        type: 3}
      propertyPath: m_RootOrder
      value: 0
      objectReference: {fileID: 0}
    - target: {fileID: 7452412804066028198, guid: de2800ef3b33bf959adee30a09f935d0,
        type: 3}
      propertyPath: m_LocalEulerAnglesHint.x
      value: 0
      objectReference: {fileID: 0}
    - target: {fileID: 7452412804066028198, guid: de2800ef3b33bf959adee30a09f935d0,
        type: 3}
      propertyPath: m_LocalEulerAnglesHint.y
      value: 0
      objectReference: {fileID: 0}
    - target: {fileID: 7452412804066028198, guid: de2800ef3b33bf959adee30a09f935d0,
        type: 3}
      propertyPath: m_LocalEulerAnglesHint.z
      value: 0
      objectReference: {fileID: 0}
    m_RemovedComponents: []
  m_SourcePrefab: {fileID: 100100000, guid: de2800ef3b33bf959adee30a09f935d0, type: 3}
